CarSalesUpdate.utf8.md
…
print(car_data,width=Inf)

## # A tibble: 2,001 x 12
##    brand_name   auto_dom auto_imp auto_total comm_dom comm_imp comm_total
##    <chr>           <dbl>    <dbl>      <dbl>    <dbl>    <dbl>      <dbl>
##  1 ALFA ROMEO          0       12         12        0        0          0
##  2 ASTON MARTN        0        2          2        0        0          0
##  3 AUDI                0      911        911        0        0          0
##  4 BENTLEY             0        0          0        0        0          0
##  5 BMW                 0      496        496        0        0          0
##  6 CHERY               0       30         30        0        0          0
##  7 CITROEN             0      394        394       41      207        248
##  8 DACIA               0     1235       1235        0      221        221
##  9 DS                  0        8          8        0        0          0
## 10 FERRARI             0        3          3        0        0          0
##    total_dom total_imp total_total month  year
##        <dbl>     <dbl>       <dbl> <dbl> <dbl>
##  1         0        12          12     1  2016
##  2         0         2           2     1  2016
##  3         0       911         911     1  2016
##  4         0         0           0     1  2016
##  5         0       496         496     1  2016
##  6         0        30          30     1  2016
##  7        41       601         642     1  2016
##  8         0      1456        1456     1  2016
##  9         0         8           8     1  2016
## 10         0         3           3     1  2016
## #  with 1,991 more rows
…
