EGM_Group_Assignment
…
Total Yearly Company Size

aa <- egm_data %>% mutate(YEAR = year(tarih)) %>%  
  group_by(sirket_adi, YEAR) %>%
  summarise(sum_size_total=sum(toplam_yyt)) %>%
  arrange(desc(sum_size_total)) %>%
  filter(sum_size_total > 165000000000) 
  print(aa)

## # A tibble: 24 x 3
## # Groups:   sirket_adi [7]
##    sirket_adi                  YEAR sum_size_total
##    <chr>                      <dbl>          <dbl>
##  1 Avivasa Emeklilik ve Hayat  2018  663789188160.
##  2 Anadolu Hayat Emeklilik     2018  632319579558.
##  3 Avivasa Emeklilik ve Hayat  2017  572261943028.
##  4 Anadolu Hayat Emeklilik     2017  543692909040.
##  5 Garanti Emeklilik ve Hayat  2018  503189721421.
##  6 Avivasa Emeklilik ve Hayat  2016  489036620445.
##  7 Anadolu Hayat Emeklilik     2016  469862271228.
##  8 Garanti Emeklilik ve Hayat  2017  447666364137.
##  9 Allianz Yaam ve Emeklilik  2018  447588263953.
## 10 Avivasa Emeklilik ve Hayat  2019  402945437694.
## # ... with 14 more rows
…
